<svg width="16" height="17" viewBox="0 0 16 17" fill="none" xmlns="http://www.w3.org/2000/svg">
<g id="Frame" clip-path="url(#clip0_644_4447)">
<path id="Vector" d="M7.5 11.6623L2.86515 14.2085L3.90016 9.09554L0 5.5562L5.27491 4.94223L7.5 0.208496L9.72509 4.94223L15 5.5562L11.0998 9.09554L12.1348 14.2085L7.5 11.6623Z" fill="#FF8900"/>
</g>
<defs>
<clipPath id="clip0_644_4447">
<rect width="16" height="16" fill="white" transform="translate(0 0.208496)"/>
</clipPath>
</defs>
</svg>
