<svg width="24" height="24" viewBox="0 0 24 24" fill="none" xmlns="http://www.w3.org/2000/svg">
<g id="security">
<path id="Vector" d="M11.19 1.36L4.19 4.47C3.47 4.79 3 5.51 3 6.3V11C3 16.55 6.84 21.74 12 23C17.16 21.74 21 16.55 21 11V6.3C21 5.51 20.53 4.79 19.81 4.47L12.81 1.36C12.3 1.13 11.7 1.13 11.19 1.36ZM12 11.99H19C18.47 16.11 15.72 19.78 12 20.93V12H5V6.3L12 3.19V11.99Z" fill="#5CB65F"/>
</g>
</svg>
