<svg width="24" height="25" viewBox="0 0 24 25" fill="none" xmlns="http://www.w3.org/2000/svg">
<g id="Frame" clip-path="url(#clip0_742_4447)">
<path id="Vector" d="M16.172 11.4119L10.808 5.89479L12.222 4.44043L20 12.4404L12.222 20.4404L10.808 18.9861L16.172 13.469H4V11.4119H16.172Z" fill="#A4A4A4"/>
</g>
<defs>
<clipPath id="clip0_742_4447">
<rect width="24" height="24" fill="white" transform="translate(0 0.5)"/>
</clipPath>
</defs>
</svg>
