<svg width="50" height="51" viewBox="0 0 50 51" fill="none" xmlns="http://www.w3.org/2000/svg">
<path id="Vector" fill-rule="evenodd" clip-rule="evenodd" d="M31.8188 0.604874C29.923 0.82109 27.34 1.55097 25.5562 2.37463C22.7669 3.6625 20.597 5.17651 18.4184 7.35505C13.4519 12.3217 10.8978 18.8898 11.559 24.9952C11.6157 25.5191 11.813 26.6231 11.9973 27.4483C12.7237 30.6991 12.6938 32.2611 11.8745 33.8941C11.7391 34.1639 11.6131 34.4015 11.5944 34.4222C11.5758 34.4429 11.3996 34.3185 11.2029 34.1458C10.7639 33.7604 10.4226 33.6231 10.0863 33.697C9.70212 33.7814 1.07399 42.4481 0.624294 43.2014C-0.279908 44.7156 -0.195344 46.7736 0.835311 48.3396C1.83183 49.8537 3.76639 50.711 5.56969 50.4374C6.83246 50.2459 7.58087 49.8033 8.97872 48.4212C10.0965 47.316 10.1805 47.2069 10.1805 46.8601C10.1805 46.3791 10.0511 46.1473 9.67348 45.952C9.14363 45.678 8.87032 45.8183 7.68614 46.9715C6.35715 48.2658 5.92992 48.4986 4.88298 48.4986C4.00998 48.4986 3.39262 48.2471 2.79254 47.647C2.20785 47.0623 1.99183 46.5011 1.99232 45.5682C1.99271 44.9072 2.03392 44.706 2.25386 44.2928C2.43917 43.9447 3.64121 42.6782 6.39688 39.9277L10.2788 36.0531L12.3614 38.1357L14.444 40.2182L12.7537 41.9186C11.1358 43.546 11.0634 43.6355 11.0634 44.0076C11.0634 44.2214 11.1278 44.4884 11.2066 44.6009C11.4038 44.8822 11.885 45.0651 12.2142 44.9836C12.5488 44.9008 16.5202 40.9942 16.7061 40.565C16.8806 40.162 16.7927 39.8125 16.4023 39.3564L16.0721 38.9706L16.6334 38.7216C17.631 38.2791 18.235 38.1445 19.4511 38.0937C20.6955 38.0416 21.3311 38.1191 23.5713 38.5962C26.9044 39.306 30.3075 39.0777 33.8229 37.9083C37.115 36.8133 40.1355 34.9482 42.7866 32.3735C46.13 29.1263 48.3168 25.4221 49.3781 21.2077C51.4388 13.0264 48.2745 5.42774 41.4258 2.11044C39.93 1.38586 37.6157 0.686691 36.7135 0.686691C36.3032 0.686691 35.8831 1.17641 35.8831 1.65466C35.8831 2.30115 36.1516 2.50952 37.3 2.75418C40.8738 3.51535 43.8485 5.48582 45.7369 8.34273C48.6946 12.8175 48.8055 19.0305 46.0287 24.6916C43.0199 30.8257 37.1768 35.4318 30.7514 36.7349C28.4574 37.2002 26.0702 37.1542 23.5507 36.5964C21.5541 36.1543 20.7892 36.0688 19.3633 36.1282C17.831 36.1921 16.7667 36.4685 15.4809 37.1362L14.6441 37.5708L13.8366 36.7626L13.0292 35.9542L13.5172 34.9732C14.2541 33.4918 14.4277 32.7259 14.4286 30.951C14.4291 29.8218 14.3808 29.2513 14.2209 28.4985C14.1062 27.9589 13.8993 26.9877 13.761 26.3403C13.2987 24.1765 13.3222 21.6845 13.8269 19.326C14.4223 16.5436 16.0334 13.1971 17.9122 10.8402C20.7308 7.30443 24.2822 4.75781 28.2471 3.42912C29.4721 3.01866 31.3625 2.60772 32.528 2.49863C33.336 2.42299 33.7614 2.1641 33.8514 1.69331C33.9253 1.30718 33.6918 0.823445 33.345 0.644115C33.0204 0.476263 32.96 0.474693 31.8188 0.604874ZM32.0081 4.86592C28.0562 5.26431 24.4063 7.00993 21.3771 9.95023C18.437 12.804 16.5716 16.3523 15.958 20.258C15.8004 21.261 15.8005 23.5733 15.9582 24.5254C16.823 29.7485 20.7214 33.634 25.9595 34.4936C27.2593 34.7069 29.9569 34.6296 31.2723 34.3414C34.6503 33.6012 37.7187 31.9072 40.254 29.3827C43.7346 25.9169 45.6182 21.6558 45.6318 17.2168C45.6368 15.5726 45.468 14.4571 44.9941 13.0049C44.372 11.0984 43.4939 9.6671 42.0913 8.27347C40.4336 6.62625 38.2014 5.47012 35.8509 5.04122C35.0523 4.89554 32.7543 4.79067 32.0081 4.86592ZM31.7628 6.87572C31.4121 6.92075 30.7992 7.02984 30.4008 7.11813L29.6765 7.27872L30.6445 8.25032L31.6124 9.22192L32.8157 8.02145C33.4776 7.36123 34.0191 6.80931 34.0191 6.79498C34.0191 6.73917 32.366 6.79832 31.7628 6.87572ZM34.6948 8.88936L32.9914 10.5947L34.3626 11.9685L35.7338 13.3423L37.8686 11.2092C39.0427 10.036 40.0033 9.05328 40.0033 9.02542C40.0033 8.80587 37.5757 7.502 36.7536 7.28L36.398 7.18396L34.6948 8.88936ZM26.6017 8.52255C25.5682 9.07124 25.0437 9.41685 23.9891 10.2442L23.2297 10.84L24.9204 12.5327L26.6111 14.2254L28.4258 12.4107L30.2405 10.596L28.9675 9.32022C28.2673 8.6184 27.6496 8.04519 27.5949 8.04617C27.5401 8.04725 27.0932 8.2616 26.6017 8.52255ZM39.2183 12.6062L37.1106 14.7156L38.4841 16.0891L39.8577 17.4626L41.5666 15.7518L43.2754 14.0408L43.1501 13.6177C42.8529 12.615 41.6841 10.5015 41.4249 10.4981C41.3705 10.4974 40.3775 11.4461 39.2183 12.6062ZM29.7514 13.8326L27.9874 15.5987L29.3608 16.9721L30.7342 18.3456L32.5471 16.5306L34.3602 14.7156L33.0383 13.391C32.3113 12.6625 31.6713 12.0665 31.616 12.0665C31.5607 12.0665 30.7217 12.8612 29.7514 13.8326ZM21.3812 12.7833C20.5463 13.7856 19.1124 16.12 19.1091 16.4824C19.1083 16.5641 19.6818 17.2039 20.3836 17.904L21.6594 19.1771L23.4485 17.388L25.2377 15.5989L23.5717 13.9308C22.6555 13.0133 21.8832 12.2652 21.8556 12.2683C21.8281 12.2714 21.6146 12.5031 21.3812 12.7833ZM33.8717 17.9529L32.1076 19.719L33.4811 21.0924L34.8545 22.4658L36.6674 20.6509L38.4804 18.8359L37.1586 17.5113C36.4316 16.7828 35.7915 16.1867 35.7362 16.1867C35.681 16.1867 34.8419 16.9815 33.8717 17.9529ZM42.4802 17.6819L41.2783 18.8878L42.2438 19.8497L43.2093 20.8115L43.3724 20.0443C43.577 19.0823 43.7546 17.4412 43.7134 16.8925L43.6822 16.4759L42.4802 17.6819ZM24.7719 18.8121L23.0315 20.5546L24.4055 21.926L25.7796 23.2974L27.5686 21.5085L29.3577 19.7194L28.0354 18.3945C27.3083 17.6658 26.6681 17.0697 26.6128 17.0697C26.5575 17.0697 25.7292 17.8538 24.7719 18.8121ZM18.2809 18.7259C18.0289 19.1337 17.5914 22.9557 17.7967 22.9557C17.8449 22.9557 18.4246 22.4142 19.0849 21.7523L20.2853 20.549L19.3164 19.5837C18.7369 19.0064 18.3207 18.6615 18.2809 18.7259ZM38.0648 22.0983L36.2754 23.8898L37.9322 25.5445C38.8703 26.4813 39.6354 27.1706 39.6958 27.1333C39.982 26.9564 41.4205 24.8741 41.918 23.9168L42.4798 22.8353L41.2184 21.5711C40.5248 20.8759 39.934 20.307 39.9056 20.307C39.8774 20.307 39.049 21.1131 38.0648 22.0983ZM28.8922 22.9324L27.1517 24.6749L28.5258 26.0462L29.8999 27.4177L31.6888 25.6287L33.4779 23.8396L32.1557 22.5148C31.4286 21.7861 30.7884 21.1899 30.733 21.1899C30.6778 21.1899 29.8494 21.974 28.8922 22.9324ZM19.8967 23.6873L18.1863 25.3999L18.362 25.9682C18.5663 26.6288 19.351 28.1689 19.7494 28.6913L20.0244 29.0518L22.2146 26.8631L24.4047 24.6746L23.0574 23.3247C22.3163 22.5822 21.6869 21.9747 21.6586 21.9747C21.6303 21.9747 20.8375 22.7454 19.8967 23.6873ZM33.0869 27.0763L31.3228 28.8424L32.6231 30.142L33.9232 31.4415L34.7338 31.0273C35.6935 30.5367 36.6594 29.9045 37.5859 29.1604L38.2588 28.62L36.606 26.9651C35.697 26.0549 34.9302 25.3102 34.9022 25.3102C34.874 25.3102 34.0571 26.1049 33.0869 27.0763ZM23.595 28.2295C22.422 29.4035 21.4621 30.3952 21.4621 30.4331C21.4621 30.6517 23.3034 31.6895 24.3882 32.0824L25.009 32.3072L26.7671 30.5512L28.5252 28.795L27.1777 27.4451C26.4367 26.7025 25.8073 26.095 25.7791 26.095C25.751 26.095 24.7681 27.0555 23.595 28.2295ZM28.7201 31.452L27.4954 32.6886L28.8198 32.634C30.0081 32.585 31.4118 32.3712 31.737 32.1897C31.8171 32.1449 31.5334 31.7982 30.9015 31.1687L29.9447 30.2156L28.7201 31.452ZM41.4749 36.9836C38.5343 37.7679 36.5047 40.2072 36.3085 43.1924C36.2273 44.4278 36.4436 45.4811 37.0259 46.6863C37.3988 47.4585 37.6093 47.7465 38.3203 48.4581C39.7066 49.8454 41.1907 50.4621 43.1426 50.4621C44.3869 50.4621 45.1341 50.2853 46.2818 49.7191C47.3598 49.1874 48.6053 47.9785 49.1435 46.9416C50.6257 44.0855 50.1411 40.9056 47.8874 38.701C46.6373 37.4781 45.1946 36.8825 43.3388 36.8233C42.437 36.7945 42.063 36.8267 41.4749 36.9836ZM41.8814 38.9044C41.5924 38.9821 41.321 39.0673 41.2785 39.0936C41.2359 39.1198 41.3252 39.4617 41.4767 39.8532C41.9071 40.9643 42.0904 41.9918 42.0937 43.3118C42.0977 44.8887 41.8803 45.9213 41.2505 47.317C40.9049 48.0831 40.8967 48.0669 41.7692 48.336C42.4794 48.5551 43.8058 48.5551 44.516 48.336C45.3885 48.0669 45.3803 48.0831 45.0347 47.317C44.3978 45.9058 44.1823 44.8747 44.187 43.2628C44.1908 41.9351 44.3924 40.8613 44.8487 39.7386C44.9813 39.4121 45.0548 39.1233 45.0118 39.0968C44.969 39.0702 44.676 38.9814 44.3609 38.8993C43.6528 38.7149 42.5776 38.717 41.8814 38.9044ZM39.2216 40.7209C38.0862 42.2789 37.9335 44.1134 38.7931 45.8687C38.9359 46.1605 39.1282 46.4674 39.2203 46.5508C39.3749 46.6907 39.4042 46.6645 39.5986 46.2129C40.3003 44.5816 40.3347 42.1748 39.6784 40.6228L39.5369 40.2881L39.2216 40.7209ZM46.4952 40.9249C45.9376 42.7302 46.007 44.6329 46.688 46.216C46.9371 46.795 47.0331 46.7553 47.4682 45.8936C48.2048 44.4342 48.2328 42.9832 47.5521 41.546C47.3987 41.2223 47.1436 40.8032 46.985 40.6147L46.6969 40.272L46.4952 40.9249Z" fill="#D1D1D1"/>
</svg>
