<svg width="655" height="92" viewBox="0 0 655 92" fill="none" xmlns="http://www.w3.org/2000/svg">
<g clip-path="url(#clip0_325_5573)">
<path d="M43.1 33.21L35.4 46.63H19.91L12.16 33.21L19.91 19.8H35.4L43.1 33.21ZM61.61 3.52996H46.12L38.4 16.95L46.15 30.37H61.64L69.4 16.95L61.61 3.52996ZM87.71 19.8H72.21L64.47 33.21L72.21 46.63H87.71L95.45 33.21L87.71 19.8ZM87.71 49.96H72.21L64.47 63.37L72.21 76.79H87.71L95.45 63.37L87.71 49.96ZM61.61 35.55H46.12L38.4 48.97L46.15 62.39H61.64L69.4 48.97L61.61 35.55ZM35.4 49.96H19.91L12.16 63.37L19.91 76.79H35.4L43.15 63.37L35.4 49.96ZM61.66 65.07H46.17L38.4 78.49L46.15 91.9H61.64L69.39 78.49L61.66 65.07ZM84.22 -3.8147e-05C84.22 -3.8147e-05 75.66 0.829962 73.52 2.99996C72.496 4.02555 71.9208 5.41563 71.9208 6.86496C71.9208 8.31429 72.496 9.70437 73.52 10.73C74.5456 11.754 75.9357 12.3292 77.385 12.3292C78.8343 12.3292 80.2244 11.754 81.25 10.73C83.33 8.54996 84.17 -3.8147e-05 84.17 -3.8147e-05H84.22ZM29.09 10.69C30.1156 11.714 31.5057 12.2892 32.955 12.2892C34.4043 12.2892 35.7944 11.714 36.82 10.69C37.3283 10.1828 37.7315 9.58036 38.0067 8.91715C38.2818 8.25394 38.4234 7.54298 38.4234 6.82496C38.4234 6.10694 38.2818 5.39598 38.0067 4.73277C37.7315 4.06955 37.3283 3.46712 36.82 2.95996C34.69 0.829961 26.13 -0.0400391 26.13 -0.0400391C26.13 -0.0400391 26.91 8.54996 29.04 10.69H29.09ZM36.82 88.69C37.3292 88.1843 37.7333 87.583 38.009 86.9205C38.2848 86.258 38.4268 85.5475 38.4268 84.83C38.4268 84.1124 38.2848 83.4019 38.009 82.7394C37.7333 82.077 37.3292 81.4756 36.82 80.97C36.3128 80.4617 35.7105 80.0584 35.0472 79.7833C34.384 79.5082 33.673 79.3666 32.955 79.3666C32.237 79.3666 31.5261 79.5082 30.8629 79.7833C30.1996 80.0584 29.5972 80.4617 29.09 80.97C26.96 83.1 26.09 91.66 26.09 91.66C26.09 91.66 34.64 90.81 36.77 88.67L36.82 88.69ZM78.97 80.97C78.4629 80.4617 77.8604 80.0584 77.1972 79.7833C76.534 79.5082 75.8231 79.3666 75.105 79.3666C74.387 79.3666 73.676 79.5082 73.0128 79.7833C72.3496 80.0584 71.7472 80.4617 71.2401 80.97C70.2166 81.9938 69.6416 83.3823 69.6416 84.83C69.6416 86.2776 70.2166 87.6661 71.2401 88.69C73.3801 90.83 81.94 91.69 81.94 91.69C81.94 91.69 81.05 83.0799 78.92 80.95L78.97 80.97ZM96.67 42.63C95.221 42.6326 93.8323 43.2101 92.8086 44.2356C91.7849 45.2612 91.21 46.651 91.21 48.1C91.21 49.548 91.7853 50.9368 92.8092 51.9608C93.8332 52.9847 95.222 53.56 96.67 53.56C99.67 53.56 106.33 48.1 106.33 48.1C106.33 48.1 99.64 42.61 96.62 42.61L96.67 42.63ZM9.67004 53.56C10.3874 53.5613 11.098 53.421 11.761 53.147C12.4241 52.8731 13.0265 52.471 13.5338 51.9637C14.041 51.4564 14.4432 50.854 14.7171 50.191C14.991 49.5279 15.1313 48.8173 15.13 48.1C15.1313 47.3821 14.9911 46.671 14.7173 46.0074C14.4435 45.3438 14.0415 44.7408 13.5344 44.2327C13.0272 43.7246 12.4249 43.3215 11.7618 43.0465C11.0987 42.7715 10.3879 42.63 9.67004 42.63C6.67004 42.63 0.0100098 48.1 0.0100098 48.1C0.0100098 48.1 6.64003 53.54 9.66003 53.54L9.67004 53.56Z" fill="url(#paint0_linear_325_5573)"/>
<path d="M158.09 76.76V54.27H132.09L120.09 42.27V28.75L132.09 16.75H138.87V38.04H166.45L178.07 50.04V64.73L166.07 76.73L158.09 76.76ZM130.2 76.76L120.12 64.76V58.76H140.12V65.9H154.95V76.75L130.2 76.76ZM158.09 33.59V27.59H142.09V16.77H166.09L176.49 27.21V33.59H158.09Z" fill="white"/>
<path d="M201.4 76.7598L189.4 64.7598V16.7598H209.4V64.7598H216.77V76.7598H201.4ZM219.94 76.7598V64.7598H227.4V16.7598H247.4V64.7598L235.4 76.7598H219.94Z" fill="white"/>
<path d="M295.78 76.76L259.4 16.77H280.51L317 76.77L295.78 76.76ZM259.43 76.76V22.47L276.84 50.99V76.76H259.43ZM317.03 71.06L299.62 42.4V16.77H317.03V71.06Z" fill="white"/>
<path d="M366.86 76.76V54.27H340.91L328.91 42.27V28.75L340.91 16.75H347.69V38.04H375.27L386.89 50.04V64.73L374.89 76.73L366.86 76.76ZM338.97 76.76L328.88 64.76V58.76H348.88V65.9H363.7V76.75L338.97 76.76ZM366.86 33.59V27.59H350.86V16.77H374.86L385.26 27.21V33.59H366.86Z" fill="white"/>
<path d="M398.47 76.76V16.76H418.09V76.76H398.47ZM421.26 61.35V49.35H435.77V28.75H421.26V16.75H443.68L455.68 28.75V49.32L443.68 61.32L421.26 61.35Z" fill="white"/>
<path d="M479 76.7598L466.84 64.7598V28.7598L479 16.7598H494.4V28.9298H486.9V64.5498H494.4V76.7598H479ZM497.54 76.7598V64.5498H505.18V28.9298H497.54V16.7698H513.04L525.16 28.7698V64.7698L513.04 76.7698L497.54 76.7598Z" fill="white"/>
<path d="M536.88 76.76V16.76H556.88V76.76H536.88ZM560.03 58.76V47.15H575.03V28.75H560.03V16.75H582.86L594.86 28.75V46.75L585.54 56.07L596.89 76.77H575.55L567.05 58.77L560.03 58.76Z" fill="white"/>
<path d="M602.58 29.84V16.77H654.66V29.84H602.58ZM618.23 76.76V32.95H639.02V76.76H618.23Z" fill="white"/>
</g>
<defs>
<linearGradient id="paint0_linear_325_5573" x1="9.76441e-06" y1="45.95" x2="106.28" y2="45.95" gradientUnits="userSpaceOnUse">
<stop stop-color="#FFF33B"/>
<stop offset="0.04" stop-color="#FEE72E"/>
<stop offset="0.12" stop-color="#FED51B"/>
<stop offset="0.2" stop-color="#FDCA10"/>
<stop offset="0.28" stop-color="#FDC70C"/>
<stop offset="0.67" stop-color="#F3903F"/>
<stop offset="0.89" stop-color="#ED683C"/>
<stop offset="1" stop-color="#E93E3A"/>
</linearGradient>
<clipPath id="clip0_325_5573">
<rect width="654.66" height="91.91" fill="white"/>
</clipPath>
</defs>
</svg>
